{
  "description": "Pipeline for parsing merlin_fw system logs",
  "processors": [
    {
      "grok": {
        "field": "message",
        "trace_match": true,
        "patterns": [
          "%{SYSLOGTIMESTAMP:merlin_fw.timestamp} %{SYSLOGHOST:merlin_fw.logsource} %{MERLINSYSLOGPROG}: (DROP|ACCEPT)  <4>%{WORD:merlin_fw.syslog.firewall.action} IN=%{WORD} OUT=%{WORD}?(?:%{GREEDYDATA})<1>SRC=%{IP:merlin_fw.syslog.firewall.src_ip} DST=%{IP:merlin_fw.syslog.firewall.dest_ip} <1>%{GREEDYDATA} <1>SPT=%{POSINT:merlin_fw.syslog.firewall.src_port:int} DPT=%{POSINT:merlin_fw.syslog.firewall.dest_port:int} %{GREEDYDATA}",
          "%{SYSLOGTIMESTAMP:merlin_fw.timestamp} %{SYSLOGHOST:merlin_fw.logsource} %{MERLINSYSLOGPROG}: (DROP|ACCEPT)  <4>%{WORD:merlin_fw.syslog.firewall.action} IN=%{WORD} OUT=%{WORD}?(?:%{GREEDYDATA})<1>SRC=%{IP:merlin_fw.syslog.firewall.src_ip} DST=%{IP:merlin_fw.syslog.firewall.dest_ip} <1>%{GREEDYDATA}",
          "%{SYSLOGTIMESTAMP:merlin_fw.timestamp} %{SYSLOGHOST:merlin_fw.logsource} %{MERLINSYSLOGPROG}: (DHCPDISCOVER)%{DATA:merlin_fw.syslog.dhcp.interface} %{MAC:merlin_fw.syslog.dhcp.mac}",
          "%{SYSLOGTIMESTAMP:merlin_fw.timestamp} %{SYSLOGHOST:merlin_fw.logsource} %{MERLINSYSLOGPROG}: (DHCPOFFER|DHCPREQUEST)%{DATA:merlin_fw.syslog.dhcp.interface} %{IP:merlin_fw.syslog.dhcp.ip} %{MAC:merlin_fw.syslog.dhcp.mac}",
          "%{SYSLOGTIMESTAMP:merlin_fw.timestamp} %{SYSLOGHOST:merlin_fw.logsource} %{MERLINSYSLOGPROG}: (DHCPACK)%{DATA:merlin_fw.syslog.dhcp.interface} %{IP:merlin_fw.syslog.dhcp.ip} %{MAC:merlin_fw.syslog.dhcp.mac} %{HOSTNAME:merlin_fw.syslog.dhcp.host}",
          "%{SYSLOGTIMESTAMP:merlin_fw.timestamp} %{SYSLOGHOST:merlin_fw.logsource} %{KERNELPROG:merlin_fw.program}: %{PROG:merlin_fw.syslog.kernel.program} %{DATA:merlin_fw.syslog.kernel.data}: %{GREEDYDATA:merlin_fw.syslog.message}",
          "%{SYSLOGTIMESTAMP:merlin_fw.timestamp} %{SYSLOGHOST:merlin_fw.logsource} %{RCPROG:merlin_fw.program}: %{PROG:merlin_fw.syslog.rc_svc.program} %{POSINT:merlin_fw.syslog.rc_svc.pid}:%{GREEDYDATA:merlin_fw.syslog.rc_svc.message}",
          "%{SYSLOGTIMESTAMP:merlin_fw.timestamp} %{SYSLOGHOST:merlin_fw.logsource} %{MERLINSYSLOGPROG}: %{GREEDYDATA:merlin_fw.message}"
        ],
        "pattern_definitions": {
          "KERNELPROG" : "kernel",
          "RCPROG" : "rc_service",
          "MERLINSYSLOGPROG" : "%{PROG:merlin_fw.program}(?:\\[%{POSINT:merlin_fw.pid}\\])?"
        }
      }
    },
    {
      "date": {
        "field": "merlin_fw.timestamp",
        "target_field": "@timestamp",
        "formats": [
          "MMM  d HH:mm:ss",
          "MMM dd HH:mm:ss"
          ],
          "ignore_failure": true
      }
    },
    {
      "geoip": {
          "field": "merlin_fw.syslog.firewall.src_ip",
          "target_field": "merlin_fw.syslog.firewall.geoip",
          "ignore_failure": true
        }
    },
    {
      "remove": {
        "field": "message"
      }
    }
  ],
  "on_failure" : [{
    "set" : {
      "field" : "error.message",
      "value" : "{{ _ingest.on_failure_message }}"
    }
  }]
}
